…
iris_with_missing = iris %>% 
  janitor::clean_names() %>% 
  map_df(~replace(.x, sample(1:150, 20), NA)) %>%
  mutate(species = as.character(species))
```

Numeric - Replace “n/a” with mean of column

``` r
iris_with_missing %>% 
  mutate(sepal_length = 
           replace(sepal_length, is.na(sepal_length), mean(sepal_length, na.rm = TRUE)))
```

    ## # A tibble: 150 × 5
    ##    sepal_length sepal_width petal_length petal_width species
    ##           <dbl>       <dbl>        <dbl>       <dbl> <chr>  
    ##  1         5.1          3.5          1.4         0.2 setosa 
    ##  2         4.9          3            1.4         0.2 setosa 
    ##  3         4.7          3.2          1.3         0.2 setosa 
    ##  4         4.6          3.1          1.5        NA   setosa 
    ##  5         5            3.6          1.4         0.2 setosa 
    ##  6         5.4          3.9          1.7         0.4 setosa 
    ##  7         5.82         3.4          1.4         0.3 setosa 
    ##  8         5            3.4          1.5         0.2 setosa 
    ##  9         4.4          2.9          1.4         0.2 setosa 
    ## 10         4.9          3.1         NA           0.1 setosa 
    ## # … with 140 more rows

Character- Replace “na” with “virginica”

``` r
iris_with_missing %>% 
  mutate(species = 
           replace(species, is.na(species), "virginica"))
```

    ## # A tibble: 150 × 5
    ##    sepal_length sepal_width petal_length petal_width species
    ##           <dbl>       <dbl>        <dbl>       <dbl> <chr>  
    ##  1          5.1         3.5          1.4         0.2 setosa 
    ##  2          4.9         3            1.4         0.2 setosa 
    ##  3          4.7         3.2          1.3         0.2 setosa 
    ##  4          4.6         3.1          1.5        NA   setosa 
    ##  5          5           3.6          1.4         0.2 setosa 
    ##  6          5.4         3.9          1.7         0.4 setosa 
    ##  7         NA           3.4          1.4         0.3 setosa 
    ##  8          5           3.4          1.5         0.2 setosa 
    ##  9          4.4         2.9          1.4         0.2 setosa 
    ## 10          4.9         3.1         NA           0.1 setosa 
    ## # … with 140 more rows
…
